8.395960000000000036e+02
7.497424391333288307e-01
7.498391565666565617e-01
7.496459591999836691e-01
7.497418110666620450e-01
1.135126905633348171e+00
1.135261959066681259e+00
1.134993269400021987e+00
1.135126785100015523e+00
1.336944588100007714e+00
1.337118968566649135e+00
1.336771174099979698e+00
1.336944516933340932e+00
6.968352074000120355e-01
6.969276416666689844e-01
6.967432789999894460e-01
6.968350020666796985e-01
1.309504245866649930e+00
1.309671542899999874e+00
1.309337138200016959e+00
1.309504549699984866e+00
1.112624831566684236e+02
1.112750402566690013e+02
1.112499011766658867e+02
1.112625059933351821e+02
