6.928141036542434961e+01
2.840487579817266295e-02
2.840722523276188044e-02
2.840277329250647659e-02
2.840486986312209389e-02
4.633143169921062621e-02
4.632663689108079685e-02
4.633597131600070140e-02
4.633098987484790543e-02
1.032624732963927788e-01
1.032782598601562768e-01
1.032470572079320220e-01
1.032623107195526496e-01
3.136190788066921253e-02
3.136748201019133597e-02
3.135636167529787244e-02
3.136154210717623930e-02
4.581291160322999850e-02
4.581819337342595000e-02
4.580731682685035971e-02
4.581250438449156054e-02
5.726104442889448976e+00
5.726445491827919732e+00
5.725724911361533387e+00
5.726078709805927147e+00
